
















































[Strings]
; non-localizeable






















































































LCID=0404










KEY_WMP = "SOFTWARE\Microsoft\MediaPlayer"

LANGUAGE="EN"

MP2_FOLDER = "Windows Media Player"
PROGRAMFILES = "Program Files"

;-------------
; localizeable
;--------------
