
[strings]
productname="Shockwave Flash"
GUID = "{D27CDB6E-AE6D-11cf-96B8-444553540000}"
GUIDFACT = "{D27CDB6E-AE6D-11cf-96B8-444553540000}"
DefaultName = "Macromedia Shockwave Flash"
ComponentID = "Flash"
VersionNumber = "5,0,44,0"
LocaleID = "TW"
