
































[Strings]
Msft="Microsoft"
Mfg="UMAX Data Systems Inc."
EPP\UMAX____ASTRA_600P_____V.DeviceDesc   = "UMAX Astra 600P"
EPP\UMAX____ASTRA_610P_____V.DeviceDesc   = "UMAX Astra 610P"
LPTENUM\VID_04E6PID_8000200056D7.DeviceDesc="Umax Astra 1220P"
UMAXPCLS.SvcDesc= "列印埠掃描器驅動程式"
ppscan.SvcDesc = "平行掃描器驅動程式"

