































[Strings]
@b:WINDOW_TITLE        = "Windows XP Blade Server 安装程序"
@s!e!b:WINDOW_TITLE      = "Windows Whistler Server 安装程序"
@w!p:WINDOW_TITLE      = "Windows XP Professional 安装程序"
@p:WINDOW_TITLE      = "Windows XP Home Edition 安装程序"
@e:WINDOW_TITLE      = "Windows Whistler Advanced Server 安装程序"
@d:WINDOW_TITLE      = "Windows Whistler Datacenter Server 安装程序"

