































;---------------------------------------------------
[Strings]
;non-localizable
Msft="Microsoft"
Provider="Hewlett-Packard"
Mfg="Hewlett-Packard"

;;
;; Localizable strings
;;

CamModle.CXXX="HP digitalt kamera"
CamModle.C500="HP C500 digitalt kamera"

;
; Strings below should exactly match stings above with addition of WIA- prefix
;

TwainDSCam="WIA-HP digitalt kamera"
TwainDSCam500="WIA-HP C500 digitalt kamera"


