































[Strings]
MSInfo32_DESC     = "Systemoplysninger"
MSInfo32_INFOTIP  = "Viser aktuelle systemoplysninger"
SystemTools_GROUP = "Tilbehør\Systemværktøjer"
MSINFOPATHL       = "Microsoft Shared\MSInfo"

