
































[Strings]
;localized strings
HID.ClassName                   = "Brugerstyrede inputenheder (HID)"
SvcDesc = "Enhedsdrev til Gravis GamePort"
VENDOR  = "Gravis"

XDGP    = "Gravis Xterminator Digital Gamepad (spilport)"
XDC     = "Gravis Xterminator Dual Control (spilport)"
BHK     = "Gravis BlackHawk Digital (spilport)"
GPP     = "Gravis GamePad Pro (spilport)"
ZEBRA   = "Gravis Eliminator Precision Pro (spilport)"

; non localized strings
SPSVCINST_ASSOCSERVICE= 0x00000002
