;;---------------------------------------------------------------;
;;
;; S T R I N G S
;;

[Strings]
MSFT="Microsoft"
NMGCMfgName="NeoMagic Corporation"
*WDM_NM6.DeviceDesc="NeoMagic MagicMedia 256 + AC97 Driver (WDM)"
WDM_NM6.Wave.szPname="NeoMagic Audio (WDM)"
WDM_NM6.Topology.szPname="NeoMagic Mixer (WDM)"
;; NM6 friendly names (non-localizeable)
NM6GUID.Pcbeep    = "{BDC05F40-A91A-11D1-84AF-00A024947B4F}"
NM6GUID.Phone     = "{BDC05F41-A91A-11D1-84AF-00A024947B4F}"
NM6GUID.Mic1      = "{BDC05F42-A91A-11D1-84AF-00A024947B4F}"
NM6GUID.Mic2      = "{BDC05F43-A91A-11D1-84AF-00A024947B4F}"
NM6GUID.LineIn    = "{BDC05F44-A91A-11D1-84AF-00A024947B4F}"
;NM6GUID.CdPlayer  = "{BDC05F45-A91A-11D1-84AF-00A024947B4F}"
NM6GUID.Video     = "{BDC05F45-A91A-11D1-84AF-00A024947B4F}"
NM6GUID.Aux       = "{BDC05F46-A91A-11D1-84AF-00A024947B4F}"
NM6GUID.LineOut   = "{BDC05F47-A91A-11D1-84AF-00A024947B4F}"
NM6GUID.HPOut     = "{BDC05F48-A91A-11D1-84AF-00A024947B4F}"
NM6GUID.MonoOut   = "{BDC05F49-A91A-11D1-84AF-00A024947B4F}"
NM6GUID.I2S       = "{BDC05F4A-A91A-11D1-84AF-00A024947B4F}"
NM6GUID.SPDIF     = "{BDC05F4B-A91A-11D1-84AF-00A024947B4F}"
NM6GUID.DockMic   = "{BDC05F4C-A91A-11D1-84AF-00A024947B4F}"
NM6GUID.DockLine  = "{BDC05F4D-A91A-11D1-84AF-00A024947B4F}"
NM6GUID.DockCD    = "{BDC05F4E-A91A-11D1-84AF-00A024947B4F}"
NM6GUID.DockAux   = "{BDC05F4F-A91A-11D1-84AF-00A024947B4F}"
NM6GUID.UseDKSPKER= "{BDC05F50-A91A-11D1-84AF-00A024947B4F}"
;; NM6 friendly names (localizeable)
NM6Pin.Pcbeep     = "PCBeep"
NM6Pin.Phone      = "Phone"
NM6Pin.Mic1       = "Microphone"
NM6Pin.Mic2       = "Mic2"
NM6Pin.LineIn     = "Line In"
;NM6Pin.CdPlayer   = "CD Audio"
NM6Pin.Video      = "Video In"
NM6Pin.Aux        = "ZV Audio"
NM6Pin.LineOut    = "Master Volume"
NM6Pin.HPOut      = "Line Out"
NM6Pin.MonoOut    = "Mono Out"
NM6Pin.I2S        = "I2S"
NM6Pin.SPDIF      = "SPDIF"

NM6Pin.DockMic    = "Dock Mic"
NM6Pin.DockLine   = "Dock Line"
NM6Pin.DockCD     = "Dock CD"
NM6Pin.DockAux    = "Dock Aux"
NM6Node.UseDKSPKER= "Enable Dock Speaker"

MediaCategories="SYSTEM\CurrentControlSet\Control\MediaCategories"
WDM_SWSYNTH="Microsoft SWSynth (WDM)"

Proxy.CLSID="{17CCA71B-ECD7-11D0-B908-00A0C9223196}"
KSCATEGORY_AUDIO="{6994AD04-93EF-11D0-A3CC-00A0C9223196}"
KSCATEGORY_RENDER="{65E8773E-8F56-11D0-A3B9-00A0C9223196}"
KSCATEGORY_CAPTURE="{65E8773D-8F56-11D0-A3B9-00A0C9223196}"
KSNAME_Wave="Wave"
KSNAME_Topology="Topology"

wdm_nm6.SvcDesc = "NeoMagic MagicMedia 256 + AC97 Driver (WDM)"

