
































[Strings]
Msft="Microsoft"
MicrosoftMfg="Microsoft"

1394DebugClassName="1394-feilsøkingsenhet"

V1394\VIRTUAL_HOST_DEBUGGER.DeviceDesc="I/U-driver for 1394 vertsfeilsøkingsprogram"

