

;----------------------------------------------------------------------------
; String substitutions
;----------------------------------------------------------------------------
[Strings]
EqnxSys           = "Equinox Systems Inc."
EquinoxPort       = "Equinox seriell port"
Eqn.ServiceDesc   = "Equinox SST-driver"
EqnDiskName1      = "Equinox Windows 2000 SST-driver disk 1"
REG_DWORD         = 0x00010001

