2	0x3000	ぁ
2	0xff01	ぁ
2	0xff07	ぁ
2	0xff0c	ぁ
2	0xff0e	ぁ
2	0xff0f	ぁ
2	0xff1a	ぁ
2	0xff1b	ぁ
2	0xff1f	ぁ
2	0xff3e	ぁ
2	0xff3f	ぁ
2	0xff40	ぁ
2	0xff5c	ぁ
2	0xffe3	ぁ
2	0x3001	ぁ
2	0x3002	ぁ
2	0x00b7	ぁ
2	0x2025	ぁ
2	0x2026	ぁ
2	0x00a8	ぁ
2	0x3003	ぁ
2	0x00ad	ぁ
2	0x2015	ぁ
2	0x2225	ぁ
2	0xff3c	ぁ
2	0x223c	ぁ
2	0x00b4	ぁ
2	0xff5e	ぁ
2	0x02c7	ぁ
2	0x02d8	ぁ
2	0x02dd	ぁ
2	0x02da	ぁ
2	0x02d9	ぁ
2	0x00b8	ぁ
2	0x02db	ぁ
2	0x00a1	ぁ
2	0x00bf	ぁ
2	0x02d0	ぁ
2	0x00c6	あ
2	0x00d0	あ
2	0x0126	あ
2	0x0132	あ
2	0x013f	あ
2	0x0141	あ
2	0x00d8	あ
2	0x0152	あ
2	0x00de	あ
2	0x0166	あ
2	0x014a	あ
2	0x00e6	あ
2	0x0111	あ
2	0x00f0	あ
2	0x0127	あ
2	0x0131	あ
2	0x0133	あ
2	0x0138	あ
2	0x0140	あ
2	0x0142	あ
2	0x00f8	あ
2	0x0153	あ
2	0x00df	あ
2	0x00fe	あ
2	0x0167	あ
2	0x014b	あ
2	0x0149	あ
2	0xff02	い
2	0xff08	い
2	0xff09	い
2	0xff3b	い
2	0xff3d	い
2	0xff5b	い
2	0xff5d	い
2	0x2018	い
2	0x2019	い
2	0x201c	い
2	0x201d	い
2	0x3014	い
2	0x3015	い
2	0x3008	い
2	0x3009	い
2	0x300a	い
2	0x300b	い
2	0x300c	い
2	0x300d	い
2	0x300e	い
2	0x300f	い
2	0x3010	い
2	0x3011	い
2	0xff0b	ぇ
2	0xff0d	ぇ
2	0xff1c	ぇ
2	0xff1d	ぇ
2	0xff1e	ぇ
2	0x00b1	ぇ
2	0x00d7	ぇ
2	0x00f7	ぇ
2	0x2260	ぇ
2	0x2264	ぇ
2	0x2265	ぇ
2	0x221e	ぇ
2	0x2234	ぇ
2	0x2642	ぇ
2	0x2640	ぇ
2	0x2220	ぇ
2	0x22a5	ぇ
2	0x2312	ぇ
2	0x2202	ぇ
2	0x2207	ぇ
2	0x2261	ぇ
2	0x2252	ぇ
2	0x226a	ぇ
2	0x226b	ぇ
2	0x221a	ぇ
2	0x223d	ぇ
2	0x221d	ぇ
2	0x2235	ぇ
2	0x222b	ぇ
2	0x222c	ぇ
2	0x2208	ぇ
2	0x220b	ぇ
2	0x2286	ぇ
2	0x2287	ぇ
2	0x2282	ぇ
2	0x2283	ぇ
2	0x222a	ぇ
2	0x2229	ぇ
2	0x2227	ぇ
2	0x2228	ぇ
2	0xffe2	ぇ
2	0x21d2	ぇ
2	0x21d4	ぇ
2	0x2200	ぇ
2	0x2203	ぇ
2	0x222e	ぇ
2	0x2211	ぇ
2	0x220f	ぇ
2	0x3041	え
2	0x3042	え
2	0x3043	え
2	0x3044	え
2	0x3045	え
2	0x3046	え
2	0x3047	え
2	0x3048	え
2	0x3049	え
2	0x304a	え
2	0x304b	え
2	0x304c	え
2	0x304d	え
2	0x304e	え
2	0x304f	え
2	0x3050	え
2	0x3051	え
2	0x3052	え
2	0x3053	え
2	0x3054	え
2	0x3055	え
2	0x3056	え
2	0x3057	え
2	0x3058	え
2	0x3059	え
2	0x305a	え
2	0x305b	え
2	0x305c	え
2	0x305d	え
2	0x305e	え
2	0x305f	え
2	0x3060	え
2	0x3061	え
2	0x3062	え
2	0x3063	え
2	0x3064	え
2	0x3065	え
2	0x3066	え
2	0x3067	え
2	0x3068	え
2	0x3069	え
2	0x306a	え
2	0x306b	え
2	0x306c	え
2	0x306d	え
2	0x306e	え
2	0x306f	え
2	0x3070	え
2	0x3071	え
2	0x3072	え
2	0x3073	え
2	0x3074	え
2	0x3075	え
2	0x3076	え
2	0x3077	え
2	0x3078	え
2	0x3079	え
2	0x307a	え
2	0x307b	え
2	0x307c	え
2	0x307d	え
2	0x307e	え
2	0x307f	え
2	0x3080	え
2	0x3081	え
2	0x3082	え
2	0x3083	え
2	0x3084	え
2	0x3085	え
2	0x3086	え
2	0x3087	え
2	0x3088	え
2	0x3089	え
2	0x308a	え
2	0x308b	え
2	0x308c	え
2	0x308d	え
2	0x308e	え
2	0x308f	え
2	0x3090	え
2	0x3091	え
2	0x3092	え
2	0x3093	え
2	0xff04	ぉ
2	0xff05	ぉ
2	0xffe6	ぉ
2	0xff26	ぉ
2	0x2032	ぉ
2	0x2033	ぉ
2	0x2103	ぉ
2	0x212b	ぉ
2	0xffe0	ぉ
2	0xffe1	ぉ
2	0xffe5	ぉ
2	0x00a4	ぉ
2	0x2109	ぉ
2	0x2030	ぉ
2	0x20ac	ぉ
2	0x3395	ぉ
2	0x3396	ぉ
2	0x3397	ぉ
2	0x2113	ぉ
2	0x3398	ぉ
2	0x33c4	ぉ
2	0x33a3	ぉ
2	0x33a4	ぉ
2	0x33a5	ぉ
2	0x33a6	ぉ
2	0x3399	ぉ
2	0x339a	ぉ
2	0x339b	ぉ
2	0x339c	ぉ
2	0x339d	ぉ
2	0x339e	ぉ
2	0x339f	ぉ
2	0x33a0	ぉ
2	0x33a1	ぉ
2	0x33a2	ぉ
2	0x33ca	ぉ
2	0x338d	ぉ
2	0x338e	ぉ
2	0x338f	ぉ
2	0x33cf	ぉ
2	0x3388	ぉ
2	0x3389	ぉ
2	0x33c8	ぉ
2	0x33a7	ぉ
2	0x33a8	ぉ
2	0x33b0	ぉ
2	0x33b1	ぉ
2	0x33b2	ぉ
2	0x33b3	ぉ
2	0x33b4	ぉ
2	0x33b5	ぉ
2	0x33b6	ぉ
2	0x33b7	ぉ
2	0x33b8	ぉ
2	0x33b9	ぉ
2	0x3380	ぉ
2	0x3381	ぉ
2	0x3382	ぉ
2	0x3383	ぉ
2	0x3384	ぉ
2	0x33ba	ぉ
2	0x33bb	ぉ
2	0x33bc	ぉ
2	0x33bd	ぉ
2	0x33be	ぉ
2	0x33bf	ぉ
2	0x3390	ぉ
2	0x3391	ぉ
2	0x3392	ぉ
2	0x3393	ぉ
2	0x3394	ぉ
2	0x2126	ぉ
2	0x33c0	ぉ
2	0x33c1	ぉ
2	0x338a	ぉ
2	0x338b	ぉ
2	0x338c	ぉ
2	0x33d6	ぉ
2	0x33c5	ぉ
2	0x33ad	ぉ
2	0x33ae	ぉ
2	0x33af	ぉ
2	0x33db	ぉ
2	0x33a9	ぉ
2	0x33aa	ぉ
2	0x33ab	ぉ
2	0x33ac	ぉ
2	0x33dd	ぉ
2	0x33d0	ぉ
2	0x33d3	ぉ
2	0x33c3	ぉ
2	0x33c9	ぉ
2	0x33dc	ぉ
2	0x33c6	ぉ
2	0xff03	け
2	0xff06	け
2	0xff0a	け
2	0xff20	け
2	0x00a7	け
2	0x203b	け
2	0x2606	け
2	0x2605	け
2	0x25cb	け
2	0x25cf	け
2	0x25ce	け
2	0x25c7	け
2	0x25c6	け
2	0x25a1	け
2	0x25a0	け
2	0x25b3	け
2	0x25b2	け
2	0x25bd	け
2	0x25bc	け
2	0x2192	け
2	0x2190	け
2	0x2191	け
2	0x2193	け
2	0x2194	け
2	0x3013	け
2	0x25c1	け
2	0x25c0	け
2	0x25b7	け
2	0x25b6	け
2	0x2664	け
2	0x2660	け
2	0x2661	け
2	0x2665	け
2	0x2667	け
2	0x2663	け
2	0x2299	け
2	0x25c8	け
2	0x25a3	け
2	0x25d0	け
2	0x25d1	け
2	0x2592	け
2	0x25a4	け
2	0x25a5	け
2	0x25a8	け
2	0x25a7	け
2	0x25a6	け
2	0x25a9	け
2	0x2668	け
2	0x260f	け
2	0x260e	け
2	0x261c	け
2	0x261e	け
2	0x00b6	け
2	0x2020	け
2	0x2021	け
2	0x2195	け
2	0x2197	け
2	0x2199	け
2	0x2196	け
2	0x2198	け
2	0x266d	け
2	0x2669	け
2	0x266a	け
2	0x266c	け
2	0x327f	け
2	0x321c	け
2	0x2116	け
2	0x33c7	け
2	0x2122	け
2	0x33c2	け
2	0x33d8	け
2	0x2121	け
2	0x00ae	け
2	0x00aa	け
2	0x00ba	け
2	0x2500	げ
2	0x2502	げ
2	0x250c	げ
2	0x2510	げ
2	0x2518	げ
2	0x2514	げ
2	0x251c	げ
2	0x252c	げ
2	0x2524	げ
2	0x2534	げ
2	0x253c	げ
2	0x2501	げ
2	0x2503	げ
2	0x250f	げ
2	0x2513	げ
2	0x251b	げ
2	0x2517	げ
2	0x2523	げ
2	0x2533	げ
2	0x252b	げ
2	0x253b	げ
2	0x254b	げ
2	0x2520	げ
2	0x252f	げ
2	0x2528	げ
2	0x2537	げ
2	0x253f	げ
2	0x251d	げ
2	0x2530	げ
2	0x2525	げ
2	0x2538	げ
2	0x2542	げ
2	0x2512	げ
2	0x2511	げ
2	0x251a	げ
2	0x2519	げ
2	0x2516	げ
2	0x2515	げ
2	0x250e	げ
2	0x250d	げ
2	0x251e	げ
2	0x251f	げ
2	0x2521	げ
2	0x2522	げ
2	0x2526	げ
2	0x2527	げ
2	0x2529	げ
2	0x252a	げ
2	0x252d	げ
2	0x252e	げ
2	0x2531	げ
2	0x2532	げ
2	0x2535	げ
2	0x2536	げ
2	0x2539	げ
2	0x253a	げ
2	0x253d	げ
2	0x253e	げ
2	0x2540	げ
2	0x2541	げ
2	0x2543	げ
2	0x2544	げ
2	0x2545	げ
2	0x2546	げ
2	0x2547	げ
2	0x2548	げ
2	0x2549	げ
2	0x254a	げ
2	0x30a1	こ
2	0x30a2	こ
2	0x30a3	こ
2	0x30a4	こ
2	0x30a5	こ
2	0x30a6	こ
2	0x30a7	こ
2	0x30a8	こ
2	0x30a9	こ
2	0x30aa	こ
2	0x30ab	こ
2	0x30ac	こ
2	0x30ad	こ
2	0x30ae	こ
2	0x30af	こ
2	0x30b0	こ
2	0x30b1	こ
2	0x30b2	こ
2	0x30b3	こ
2	0x30b4	こ
2	0x30b5	こ
2	0x30b6	こ
2	0x30b7	こ
2	0x30b8	こ
2	0x30b9	こ
2	0x30ba	こ
2	0x30bb	こ
2	0x30bc	こ
2	0x30bd	こ
2	0x30be	こ
2	0x30bf	こ
2	0x30c0	こ
2	0x30c1	こ
2	0x30c2	こ
2	0x30c3	こ
2	0x30c4	こ
2	0x30c5	こ
2	0x30c6	こ
2	0x30c7	こ
2	0x30c8	こ
2	0x30c9	こ
2	0x30ca	こ
2	0x30cb	こ
2	0x30cc	こ
2	0x30cd	こ
2	0x30ce	こ
2	0x30cf	こ
2	0x30d0	こ
2	0x30d1	こ
2	0x30d2	こ
2	0x30d3	こ
2	0x30d4	こ
2	0x30d5	こ
2	0x30d6	こ
2	0x30d7	こ
2	0x30d8	こ
2	0x30d9	こ
2	0x30da	こ
2	0x30db	こ
2	0x30dc	こ
2	0x30dd	こ
2	0x30de	こ
2	0x30df	こ
2	0x30e0	こ
2	0x30e1	こ
2	0x30e2	こ
2	0x30e3	こ
2	0x30e4	こ
2	0x30e5	こ
2	0x30e6	こ
2	0x30e7	こ
2	0x30e8	こ
2	0x30e9	こ
2	0x30ea	こ
2	0x30eb	こ
2	0x30ec	こ
2	0x30ed	こ
2	0x30ee	こ
2	0x30ef	こ
2	0x30f0	こ
2	0x30f1	こ
2	0x30f2	こ
2	0x30f3	こ
2	0x30f4	こ
2	0x30f5	こ
2	0x30f6	こ
2	0x3260	さ
2	0x3261	さ
2	0x3262	さ
2	0x3263	さ
2	0x3264	さ
2	0x3265	さ
2	0x3266	さ
2	0x3267	さ
2	0x3268	さ
2	0x3269	さ
2	0x326a	さ
2	0x326b	さ
2	0x326c	さ
2	0x326d	さ
2	0x326e	さ
2	0x326f	さ
2	0x3270	さ
2	0x3271	さ
2	0x3272	さ
2	0x3273	さ
2	0x3274	さ
2	0x3275	さ
2	0x3276	さ
2	0x3277	さ
2	0x3278	さ
2	0x3279	さ
2	0x327a	さ
2	0x327b	さ
2	0x3200	さ
2	0x3201	さ
2	0x3202	さ
2	0x3203	さ
2	0x3204	さ
2	0x3205	さ
2	0x3206	さ
2	0x3207	さ
2	0x3208	さ
2	0x3209	さ
2	0x320a	さ
2	0x320b	さ
2	0x320c	さ
2	0x320d	さ
2	0x320e	さ
2	0x320f	さ
2	0x3210	さ
2	0x3211	さ
2	0x3212	さ
2	0x3213	さ
2	0x3214	さ
2	0x3215	さ
2	0x3216	さ
2	0x3217	さ
2	0x3218	さ
2	0x3219	さ
2	0x321a	さ
2	0x321b	さ
2	0x0410	ざ
2	0x0411	ざ
2	0x0412	ざ
2	0x0413	ざ
2	0x0414	ざ
2	0x0415	ざ
2	0x0401	ざ
2	0x0416	ざ
2	0x0417	ざ
2	0x0418	ざ
2	0x0419	ざ
2	0x041a	ざ
2	0x041b	ざ
2	0x041c	ざ
2	0x041d	ざ
2	0x041e	ざ
2	0x041f	ざ
2	0x0420	ざ
2	0x0421	ざ
2	0x0422	ざ
2	0x0423	ざ
2	0x0424	ざ
2	0x0425	ざ
2	0x0426	ざ
2	0x0427	ざ
2	0x0428	ざ
2	0x0429	ざ
2	0x042a	ざ
2	0x042b	ざ
2	0x042c	ざ
2	0x042d	ざ
2	0x042e	ざ
2	0x042f	ざ
2	0x0430	ざ
2	0x0431	ざ
2	0x0432	ざ
2	0x0433	ざ
2	0x0434	ざ
2	0x0435	ざ
2	0x0451	ざ
2	0x0436	ざ
2	0x0437	ざ
2	0x0438	ざ
2	0x0439	ざ
2	0x043a	ざ
2	0x043b	ざ
2	0x043c	ざ
2	0x043d	ざ
2	0x043e	ざ
2	0x043f	ざ
2	0x0440	ざ
2	0x0441	ざ
2	0x0442	ざ
2	0x0443	ざ
2	0x0444	ざ
2	0x0445	ざ
2	0x0446	ざ
2	0x0447	ざ
2	0x0448	ざ
2	0x0449	ざ
2	0x044a	ざ
2	0x044b	ざ
2	0x044c	ざ
2	0x044d	ざ
2	0x044e	ざ
2	0x044f	ざ
2	0x24d0	し
2	0x24d1	し
2	0x24d2	し
2	0x24d3	し
2	0x24d4	し
2	0x24d5	し
2	0x24d6	し
2	0x24d7	し
2	0x24d8	し
2	0x24d9	し
2	0x24da	し
2	0x24db	し
2	0x24dc	し
2	0x24dd	し
2	0x24de	し
2	0x24df	し
2	0x24e0	し
2	0x24e1	し
2	0x24e2	し
2	0x24e3	し
2	0x24e4	し
2	0x24e5	し
2	0x24e6	し
2	0x24e7	し
2	0x24e8	し
2	0x24e9	し
2	0x2460	し
2	0x2461	し
2	0x2462	し
2	0x2463	し
2	0x2464	し
2	0x2465	し
2	0x2466	し
2	0x2467	し
2	0x2468	し
2	0x2469	し
2	0x246a	し
2	0x246b	し
2	0x246c	し
2	0x246d	し
2	0x246e	し
2	0x249c	し
2	0x249d	し
2	0x249e	し
2	0x249f	し
2	0x24a0	し
2	0x24a1	し
2	0x24a2	し
2	0x24a3	し
2	0x24a4	し
2	0x24a5	し
2	0x24a6	し
2	0x24a7	し
2	0x24a8	し
2	0x24a9	し
2	0x24aa	し
2	0x24ab	し
2	0x24ac	し
2	0x24ad	し
2	0x24ae	し
2	0x24af	し
2	0x24b0	し
2	0x24b1	し
2	0x24b2	し
2	0x24b3	し
2	0x24b4	し
2	0x24b5	し
2	0x2474	し
2	0x2475	し
2	0x2476	し
2	0x2477	し
2	0x2478	し
2	0x2479	し
2	0x247a	し
2	0x247b	し
2	0x247c	し
2	0x247d	し
2	0x247e	し
2	0x247f	し
2	0x2480	し
2	0x2481	し
2	0x2482	し
2	0xff10	じ
2	0xff11	じ
2	0xff12	じ
2	0xff13	じ
2	0xff14	じ
2	0xff15	じ
2	0xff16	じ
2	0xff17	じ
2	0xff18	じ
2	0xff19	じ
2	0x2170	じ
2	0x2171	じ
2	0x2172	じ
2	0x2173	じ
2	0x2174	じ
2	0x2175	じ
2	0x2176	じ
2	0x2177	じ
2	0x2178	じ
2	0x2179	じ
2	0x2160	じ
2	0x2161	じ
2	0x2162	じ
2	0x2163	じ
2	0x2164	じ
2	0x2165	じ
2	0x2166	じ
2	0x2167	じ
2	0x2168	じ
2	0x2169	じ
2	0x00bd	ず
2	0x2153	ず
2	0x2154	ず
2	0x00bc	ず
2	0x00be	ず
2	0x215b	ず
2	0x215c	ず
2	0x215d	ず
2	0x215e	ず
2	0x00b9	ず
2	0x00b2	ず
2	0x00b3	ず
2	0x2074	ず
2	0x207f	ず
2	0x2081	ず
2	0x2082	ず
2	0x2083	ず
2	0x2084	ず
2	0x3131	せ
2	0x3132	せ
2	0x3133	せ
2	0x3134	せ
2	0x3135	せ
2	0x3136	せ
2	0x3137	せ
2	0x3138	せ
2	0x3139	せ
2	0x313a	せ
2	0x313b	せ
2	0x313c	せ
2	0x313d	せ
2	0x313e	せ
2	0x313f	せ
2	0x3140	せ
2	0x3141	せ
2	0x3142	せ
2	0x3143	せ
2	0x3144	せ
2	0x3145	せ
2	0x3146	せ
2	0x3147	せ
2	0x3148	せ
2	0x3149	せ
2	0x314a	せ
2	0x314b	せ
2	0x314c	せ
2	0x314d	せ
2	0x314e	せ
2	0x314f	せ
2	0x3150	せ
2	0x3151	せ
2	0x3152	せ
2	0x3153	せ
2	0x3154	せ
2	0x3155	せ
2	0x3156	せ
2	0x3157	せ
2	0x3158	せ
2	0x3159	せ
2	0x315a	せ
2	0x315b	せ
2	0x315c	せ
2	0x315d	せ
2	0x315e	せ
2	0x315f	せ
2	0x3160	せ
2	0x3161	せ
2	0x3162	せ
2	0x3163	せ
2	0x3165	ぜ
2	0x3166	ぜ
2	0x3167	ぜ
2	0x3168	ぜ
2	0x3169	ぜ
2	0x316a	ぜ
2	0x316b	ぜ
2	0x316c	ぜ
2	0x316d	ぜ
2	0x316e	ぜ
2	0x316f	ぜ
2	0x3170	ぜ
2	0x3171	ぜ
2	0x3172	ぜ
2	0x3173	ぜ
2	0x3174	ぜ
2	0x3175	ぜ
2	0x3176	ぜ
2	0x3177	ぜ
2	0x3178	ぜ
2	0x3179	ぜ
2	0x317a	ぜ
2	0x317b	ぜ
2	0x317c	ぜ
2	0x317d	ぜ
2	0x317e	ぜ
2	0x317f	ぜ
2	0x3180	ぜ
2	0x3181	ぜ
2	0x3182	ぜ
2	0x3183	ぜ
2	0x3184	ぜ
2	0x3185	ぜ
2	0x3186	ぜ
2	0x3187	ぜ
2	0x3188	ぜ
2	0x3189	ぜ
2	0x318a	ぜ
2	0x318b	ぜ
2	0x318c	ぜ
2	0x318d	ぜ
2	0x318e	ぜ
2	0xff21	そ
2	0xff22	そ
2	0xff23	そ
2	0xff24	そ
2	0xff25	そ
2	0xff26	そ
2	0xff27	そ
2	0xff28	そ
2	0xff29	そ
2	0xff2a	そ
2	0xff2b	そ
2	0xff2c	そ
2	0xff2d	そ
2	0xff2e	そ
2	0xff2f	そ
2	0xff30	そ
2	0xff31	そ
2	0xff32	そ
2	0xff33	そ
2	0xff34	そ
2	0xff35	そ
2	0xff36	そ
2	0xff37	そ
2	0xff38	そ
2	0xff39	そ
2	0xff3a	そ
2	0xff41	そ
2	0xff42	そ
2	0xff43	そ
2	0xff44	そ
2	0xff45	そ
2	0xff46	そ
2	0xff47	そ
2	0xff48	そ
2	0xff49	そ
2	0xff4a	そ
2	0xff4b	そ
2	0xff4c	そ
2	0xff4d	そ
2	0xff4e	そ
2	0xff4f	そ
2	0xff50	そ
2	0xff51	そ
2	0xff52	そ
2	0xff53	そ
2	0xff54	そ
2	0xff55	そ
2	0xff56	そ
2	0xff57	そ
2	0xff58	そ
2	0xff59	そ
2	0xff5a	そ
2	0x0391	ぞ
2	0x0392	ぞ
2	0x0393	ぞ
2	0x0394	ぞ
2	0x0395	ぞ
2	0x0396	ぞ
2	0x0397	ぞ
2	0x0398	ぞ
2	0x0399	ぞ
2	0x039a	ぞ
2	0x039b	ぞ
2	0x039c	ぞ
2	0x039d	ぞ
2	0x039e	ぞ
2	0x039f	ぞ
2	0x03a0	ぞ
2	0x03a1	ぞ
2	0x03a3	ぞ
2	0x03a4	ぞ
2	0x03a5	ぞ
2	0x03a6	ぞ
2	0x03a7	ぞ
2	0x03a8	ぞ
2	0x03a9	ぞ
2	0x03b1	ぞ
2	0x03b2	ぞ
2	0x03b3	ぞ
2	0x03b4	ぞ
2	0x03b5	ぞ
2	0x03b6	ぞ
2	0x03b7	ぞ
2	0x03b8	ぞ
2	0x03b9	ぞ
2	0x03ba	ぞ
2	0x03bb	ぞ
2	0x03bc	ぞ
2	0x03bd	ぞ
2	0x03be	ぞ
2	0x03bf	ぞ
2	0x03c0	ぞ
2	0x03c1	ぞ
2	0x03c3	ぞ
2	0x03c4	ぞ
2	0x03c5	ぞ
2	0x03c6	ぞ
2	0x03c7	ぞ
2	0x03c8	ぞ
2	0x03c9	ぞ
