Making C:\qsrc\filters\dv\dvenc 
TARGET_LIB = debug\dvenc.lib 
TARGET_BIN = debug\dvenc.dll 
 
pass1 - C:\qsrc\filters\dv\dvenc 
Generate dependencies... 
c:\qsrc\tools\bin\mkdepend.exe -tc:\qsrc -aQUARTZ=c:\qsrc -I. -Ic:\qsrc\sdk\include -Ic:\qsrc\sdk\classes\base -Ic:\qsrc\h -Ic:\qsrc\h\vc41 {src_files}/{rc_file} 
pass2 - C:\qsrc\filters\dv\dvenc 
Compiling dvenc.cpp... 
cl /Yustreams.h /Fpc:\qsrc\sdk\lib\streamsd.pch -c -nologo -Gy -DINC_OLE2 -DSTRICT -DWIN32 -D_WIN32 -MDd -D_MT -D_DLL -D_X86_=1 -DWINVER=0x0400 -DDBG=1 -DDEBUG -D_DEBUG -Z7 -Oid -Gz -Dtry=__try -Dexcept=__except -Dleave=__leave -Dfinally=__finally -W3 -DFILTER_DLL -Fodebug\ -I. -Ic:\qsrc\sdk\include -Ic:\qsrc\sdk\classes\base -Ic:\qsrc\h -Ic:\qsrc\h\vc41 dvenc.cpp 
dvenc.cpp
 
Compiling pencode.cpp... 
cl /Yustreams.h /Fpc:\qsrc\sdk\lib\streamsd.pch -c -nologo -Gy -DINC_OLE2 -DSTRICT -DWIN32 -D_WIN32 -MDd -D_MT -D_DLL -D_X86_=1 -DWINVER=0x0400 -DDBG=1 -DDEBUG -D_DEBUG -Z7 -Oid -Gz -Dtry=__try -Dexcept=__except -Dleave=__leave -Dfinally=__finally -W3 -DFILTER_DLL -Fodebug\ -I. -Ic:\qsrc\sdk\include -Ic:\qsrc\sdk\classes\base -Ic:\qsrc\h -Ic:\qsrc\h\vc41 pencode.cpp 
pencode.cpp
 
Build library debug\dvenc.lib... 
 lib 
  /NODEFAULTLIB
  /machine:i386
  /subsystem:windows,4.0
  /def:dvenc.def
  -debugtype:cv
  /out:debug\dvenc.lib
  c:\qsrc\sdk\lib\strmbasd.lib
  debug\dvenc.obj
  debug\pencode.obj
  debug\encprop.obj
  
Microsoft (R) 32-Bit Library Manager Version 5.00.7022
Copyright (c) 1997 - 1997  Microsoft Corporation.  All Rights Reserved.

/NODEFAULTLIB 
/machine:i386 
/subsystem:windows,4.0 
/def:dvenc.def 
-debugtype:cv 
/out:debug\dvenc.lib 
c:\qsrc\sdk\lib\strmbasd.lib 
debug\dvenc.obj 
debug\pencode.obj 
debug\encprop.obj 
   Creating library debug\dvenc.lib and object debug\dvenc.exp
 
Copy debug\dvenc.lib to c:\qsrc\lib\debug\dvenc.lib... 
        1 file(s) copied.
 
pass3 - C:\qsrc\filters\dv\dvenc 
Linking debug\dvenc.dll... 
 link 
  /NODEFAULTLIB
  /INCREMENTAL:NO
  /NOLOGO
  /MACHINE:i386
  /PDB:NONE
  /align:0x1000
  /debug:mapped,full
  /debugtype:both
  /dll
  /base:0x1c400000
  /subsystem:windows,4.0
  /entry:DllEntryPoint@12
  /out:debug\dvenc.dll
  debug\dvenc.exp
  debug\dvenc.obj
  debug\pencode.obj
  debug\encprop.obj
  debug\_streams.obj
  c:\qsrc\sdk\lib\strmbasd.lib
  c:\qsrc\sdk\lib\strmbasd.lib
  dvencode.lib
  c:\qsrc\sdk\lib\quartz.lib
  msvcrtd.lib
  vfw32.lib
  winmm.lib
  msacm32.lib
  kernel32.lib
  advapi32.lib
  version.lib
  largeint.lib
  user32.lib
  shell32.lib
  gdi32.lib
  comdlg32.lib
  comctl32.lib
  ole32.lib
  oleaut32.lib
  rpcrt4.lib
  c:\qsrc\lib\i386\uuid.lib
  
 
Copy debug\dvenc.dll to c:\qsrc\runtime\debug\dvenc.dll... 
        1 file(s) copied.
 
Done! 
