
;--------------------------------------Localizable Strings Section-------------------------------

; User-visible strings
[Strings]
FAXTopDesc              = "Microsoft Fax"       ;Text displayed in Listbox during Setup
FAXDesc                 = "Microsoft FAX 서비스"

FAXTip                  = "팩스를 주고 받을 수 있습니다."

FAXViewDesc             = "Microsoft FAX 뷰어"        ;Text displayed in Listbox during Setup
; and in the profile messaging services listbox
FAXViewTip              = "Microsoft FAX 이미지를 볼 수 있습니다."

; Program Groups
FAXApps_DESC            = "보조프로그램\FAX"
FaxPrograms             = "프로그램"            ; The Programs Group
SendTo_DESC             = "SendTo"              ; Name of SendTo folder in the Windows dir
FaxStartMenu            = "시작 메뉴"            ; Name of the Start Menu Folder MUST USE 8.3 PATH NAME

; Group Item Names
SendToFax_DESC          = "FAX 받는이"       ;
FAXVIEW_Link_Desc       = "FAX 뷰어"          ; Not used
FAXCOVER_Link_Desc      = "표지 편집기"
CallaFaxService         = "FAX 요청"
ShowFaxQueue            = "FAX 대기열 표시"
SendNewFax              = "새 FAX 만들기"

; 8.3 name of the equivelent items above.... Have fun...

FaxPoll                 = "Request"
Newfax                  = "NewFax"
FaxCover                = "FaxCover"
Sendfax                 = "SendFax"

; OLE Verb Names (Localized]

PRINT                   = "인쇄(&P)"
OPEN                    = "열기(&O)"
EDIT                    = "편집(&E)"

; The name of the Spool directory in c:\windows
SPOOL_DIR               = "spool"
;
; Registry item names -- Must match what is in resource of program
VIEWER_DOC              = "FAX 뷰어 문서"
CPE_DOC                 = "표지 편집기 문서"

; Mapi provider names
FAXAB                   = "주소록"
FAXXP                   = "트랜스포트"
FAXMS                   = "메시징 서비스"

;
; Cover page Sample LFN's
CPE_1desc               = "대외비"
CPE_2desc               = "공보 자료"
CPE_4desc               = "긴급"
CPE_5desc               = "일반"
OLD_CPE_5desc           = "일반용"
;
; for NON-US BUILD this STRING should be "NotUsed"
; no need to localize this anymore. This is handled in the code.
;rgMessageInTheBottle   = "Received"                    ; USA builds ONLY
;rgMessageInTheBottle   = "NotUsed"                     ; NON-USA BUILDS

; This is the 8.3 name of the OLD General Purpose CPE file
; We Had to make a short File name so we would have correct defaults
; even on non-Long File name systems. This name is used to delete the
; old "General Purpose.CPE" file
General83name           = "GENERA~1.CPE"

; Old names need for deleting links left over from previous installs
Old_CallaFaxService     = "파일 검색"
Old_ShowFaxQueue        = "FAX 대기열 표시"
Old_SendNewFax          = "새 FAX 보내기"
Old_FAXCOVER_Link_Desc  = "FAX 표지 편집기"


;;; These strings should not localized -- Must not change
TransportReg            = "Software\Microsoft\At Work Fax\Transport Service Provider"
FaxViewCLSID            = "02B01C80-E03D-101A-B294-00DD010F2BF9"

