
; DevXProp.TXT
;
; This is the Device Extended Property Database
; for Whistler
;
; Copyright (c) 2001 Microsoft Corporation
;
; StephStm (2001/01/17)
;

[Strings]

DESC_IOMEGAUSBZIP100 =                  "Iomega Zip 100"
DESC_IOMEGAUSBZIP250 =                  "Iomega Zip 250"
DESC_IOMEGACLIK =                       "Iomega Clik!"
DESC_IOMEGAHIPZIP =                     "Iomega HipZip"
DESC_SANDISKIMAGEMATE =                 "SanDisk ImageMate"
DESC_SONYMEMSTICKMG =                   "Sony MemoryStick - MG"
DESC_SONYMEMSTICK =                     "Sony MemoryStick"
DESC_FUJITSUMEMSTICKMG =                "Fujitsu MemoryStick - MG"
DESC_FUJITSUMEMSTICK =                  "Fujitsu MemoryStick"
DESC_CAMERA =                           "디지털 카메라"
DESC_CELLPHONE =                        "이동 전화"
DESC_FAXDEVICE =                        "팩스"
DESC_JAZDRIVE =                         "Jaz Drive"
DESC_OPTICALDRIVE =                     "광 드라이브"
DESC_PCMCIASTORAGE =                    "PCMCIA 저장 장치"
DESC_PCMCIACARD =                       "PCMCIA 카드"
DESC_POCKETPC =                         "Pocket PC"
DESC_PRINTER =                          "프린터"
DESC_SCANNER =                          "스캐너"
DESC_TAPEDRIVE =                        "테이프 드라이브"
DESC_VIDEOCAMERA =                      "디지털 비디오 카메라"
DESC_SMARTMEDIAREADWRITE =              "SmartMedia Reader/Writer"
DESC_COMPACTFLASHREADWRITE =            "CompactFlash Reader/Writer"
DESC_DUALSLOTREADWRITE =                "Dual Slot Reader/Writer"
DESC_MEMSTICK =                         "Memory Stick"
DESC_MEMSTICKMG =                       "Memory Stick - MG"
DESC_ZIPDRIVE100 =                      "Zip Drive 100"
DESC_ZIPDRIVE250 =                      "Zip Drive 250"
DESC_CLIKDRIVE =                        "Clik! Drive"
DESC_IMAGEMATE =                        "ImageMate"
DESC_PORTABLEAUDIOPLAYER =              "휴대용 음악 플레이어"
